<?xml version="1.0" encoding="UTF-8" standalone="no"?><svg xmlns="http://www.w3.org/2000/svg" xmlns:xlink="http://www.w3.org/1999/xlink" contentScriptType="application/ecmascript" contentStyleType="text/css" height="465px" preserveAspectRatio="none" style="width:1304px;height:465px;" version="1.1" viewBox="0 0 1304 465" width="1304px" zoomAndPan="magnify"><defs><filter height="300%" id="fj0jd1y3t2hoy" width="300%" x="-1" y="-1"><feGaussianBlur result="blurOut" stdDeviation="2.0"/><feColorMatrix in="blurOut" result="blurOut2" type="matrix" values="0 0 0 0 0 0 0 0 0 0 0 0 0 0 0 0 0 0 .4 0"/><feOffset dx="4.0" dy="4.0" in="blurOut2" result="blurOut3"/><feBlend in="SourceGraphic" in2="blurOut3" mode="normal"/></filter></defs><g><!--MD5=[3daa8d6928fc49ee032578c2e238d80e]
entity Authority--><rect fill="#FEFECE" filter="url(#fj0jd1y3t2hoy)" height="192.9688" style="stroke: #A80036; stroke-width: 1.5;" width="560" x="306" y="8"/><rect fill="#FEFECE" height="10" style="stroke: #A80036; stroke-width: 1.5;" width="15" x="846" y="13"/><rect fill="#FEFECE" height="2" style="stroke: #A80036; stroke-width: 1.5;" width="4" x="844" y="15"/><rect fill="#FEFECE" height="2" style="stroke: #A80036; stroke-width: 1.5;" width="4" x="844" y="19"/><text fill="#000000" font-family="sans-serif" font-size="14" lengthAdjust="spacingAndGlyphs" textLength="61" x="321" y="40.9951">Authority</text><text fill="#000000" font-family="sans-serif" font-size="14" lengthAdjust="spacingAndGlyphs" textLength="115" x="321" y="57.292">Has the records:</text><text fill="#000000" font-family="sans-serif" font-size="14" lengthAdjust="spacingAndGlyphs" textLength="115" x="321" y="73.5889">- PKEY, n1, 1111</text><text fill="#000000" font-family="sans-serif" font-size="14" lengthAdjust="spacingAndGlyphs" textLength="115" x="321" y="89.8857">- PKEY, n2, 2221</text><text fill="#000000" font-family="sans-serif" font-size="14" lengthAdjust="spacingAndGlyphs" textLength="152" x="321" y="106.1826">- TXT, mixnet, "n1, n2"</text><text fill="#000000" font-family="sans-serif" font-size="14" lengthAdjust="spacingAndGlyphs" textLength="0" x="325" y="122.4795"/><text fill="#000000" font-family="sans-serif" font-size="14" lengthAdjust="spacingAndGlyphs" textLength="276" x="321" y="138.7764">Can query the records (in its root zone):</text><text fill="#000000" font-family="sans-serif" font-size="14" lengthAdjust="spacingAndGlyphs" textLength="520" x="321" y="155.0732">- n1.root -&gt; TXT, n1, email=root@n1.pep.example;layer=1;openpgp=AAAA</text><text fill="#000000" font-family="sans-serif" font-size="14" lengthAdjust="spacingAndGlyphs" textLength="184" x="321" y="171.3701">- n2.root -&gt; A, n2, 10.0.0.2</text><text fill="#000000" font-family="sans-serif" font-size="14" lengthAdjust="spacingAndGlyphs" textLength="251" x="321" y="187.667">- mixnet.root -&gt; TXT, mixnet, "n1,n2"</text><!--MD5=[f042970fa631b194e0ab6c1248938917]
entity N1--><rect fill="#FEFECE" filter="url(#fj0jd1y3t2hoy)" height="176.6719" style="stroke: #A80036; stroke-width: 1.5;" width="628" x="6" y="278"/><rect fill="#FEFECE" height="10" style="stroke: #A80036; stroke-width: 1.5;" width="15" x="614" y="283"/><rect fill="#FEFECE" height="2" style="stroke: #A80036; stroke-width: 1.5;" width="4" x="612" y="285"/><rect fill="#FEFECE" height="2" style="stroke: #A80036; stroke-width: 1.5;" width="4" x="612" y="289"/><text fill="#000000" font-family="sans-serif" font-size="14" lengthAdjust="spacingAndGlyphs" textLength="19" x="21" y="310.9951">N1</text><text fill="#000000" font-family="sans-serif" font-size="14" lengthAdjust="spacingAndGlyphs" textLength="115" x="21" y="327.292">Has the records:</text><text fill="#000000" font-family="sans-serif" font-size="14" lengthAdjust="spacingAndGlyphs" textLength="157" x="21" y="343.5889">- PKEY, authority, 0000</text><text fill="#000000" font-family="sans-serif" font-size="14" lengthAdjust="spacingAndGlyphs" textLength="445" x="21" y="359.8857">- TXT, n1, email=root@n1.pep.example;layer=1;openpgp=AAAA</text><text fill="#000000" font-family="sans-serif" font-size="14" lengthAdjust="spacingAndGlyphs" textLength="0" x="25" y="376.1826"/><text fill="#000000" font-family="sans-serif" font-size="14" lengthAdjust="spacingAndGlyphs" textLength="276" x="21" y="392.4795">Can query the records (in its root zone):</text><text fill="#000000" font-family="sans-serif" font-size="14" lengthAdjust="spacingAndGlyphs" textLength="520" x="21" y="408.7764">- n1.root -&gt; TXT, n1, email=root@n1.pep.example;layer=1;openpgp=AAAA</text><text fill="#000000" font-family="sans-serif" font-size="14" lengthAdjust="spacingAndGlyphs" textLength="315" x="21" y="425.0732">- mixnet.authority.root -&gt; TXT, mixnet, "n1,n2"</text><text fill="#000000" font-family="sans-serif" font-size="14" lengthAdjust="spacingAndGlyphs" textLength="588" x="21" y="441.3701">- n2.authority.root -&gt; TXT, n2, email=root@n2.pep.example;layer=1;openpgp=BBBB</text><!--MD5=[4b5ab69de11007997fdc27e7483449f4]
entity N2--><rect fill="#FEFECE" filter="url(#fj0jd1y3t2hoy)" height="176.6719" style="stroke: #A80036; stroke-width: 1.5;" width="624" x="669" y="278"/><rect fill="#FEFECE" height="10" style="stroke: #A80036; stroke-width: 1.5;" width="15" x="1273" y="283"/><rect fill="#FEFECE" height="2" style="stroke: #A80036; stroke-width: 1.5;" width="4" x="1271" y="285"/><rect fill="#FEFECE" height="2" style="stroke: #A80036; stroke-width: 1.5;" width="4" x="1271" y="289"/><text fill="#000000" font-family="sans-serif" font-size="14" lengthAdjust="spacingAndGlyphs" textLength="19" x="684" y="310.9951">N2</text><text fill="#000000" font-family="sans-serif" font-size="14" lengthAdjust="spacingAndGlyphs" textLength="115" x="684" y="327.292">Has the records:</text><text fill="#000000" font-family="sans-serif" font-size="14" lengthAdjust="spacingAndGlyphs" textLength="157" x="684" y="343.5889">- PKEY, authority, 0000</text><text fill="#000000" font-family="sans-serif" font-size="14" lengthAdjust="spacingAndGlyphs" textLength="449" x="684" y="359.8857">- TXT, n2, email=root@n2.pep.example;layer=1;openpgp=BBBB</text><text fill="#000000" font-family="sans-serif" font-size="14" lengthAdjust="spacingAndGlyphs" textLength="0" x="688" y="376.1826"/><text fill="#000000" font-family="sans-serif" font-size="14" lengthAdjust="spacingAndGlyphs" textLength="276" x="684" y="392.4795">Can query the records (in its root zone):</text><text fill="#000000" font-family="sans-serif" font-size="14" lengthAdjust="spacingAndGlyphs" textLength="524" x="684" y="408.7764">- n2.root -&gt; TXT, n2, email=root@n2.pep.example;layer=1;openpgp=BBBB</text><text fill="#000000" font-family="sans-serif" font-size="14" lengthAdjust="spacingAndGlyphs" textLength="315" x="684" y="425.0732">- mixnet.authority.root -&gt; TXT, mixnet, "n1,n2"</text><text fill="#000000" font-family="sans-serif" font-size="14" lengthAdjust="spacingAndGlyphs" textLength="584" x="684" y="441.3701">- n1.authority.root -&gt; TXT, n1, email=root@n1.pep.example;layer=1;openpgp=AAAA</text><!--MD5=[a3bcdd42f3b359be92cba7c757fb6510]
link Authority to N1--><path d="M410.6322,201.0822 C399.6145,210.4355 389.2545,220.4158 380,231 C369.1803,243.3743 360.024,258.0118 352.3748,273.0122 " fill="none" id="Authority-&gt;N1" style="stroke: #A80036; stroke-width: 1.0;"/><polygon fill="#A80036" points="350.0491,277.677,357.6444,271.4072,352.28,273.2023,350.4849,267.8378,350.0491,277.677" style="stroke: #A80036; stroke-width: 1.0;"/><text fill="#000000" font-family="sans-serif" font-size="13" lengthAdjust="spacingAndGlyphs" textLength="46" x="381" y="244.0669">n1.root</text><!--MD5=[478e86cab0b04192df6bcbe64a4b087d]
link N1 to Authority--><path d="M409.9685,277.8844 C433.801,254.4103 459.6996,228.9011 484.1159,204.852 " fill="none" id="N1-&gt;Authority" style="stroke: #A80036; stroke-width: 1.0;"/><polygon fill="#A80036" points="487.7072,201.3147,478.4883,204.7805,484.145,204.8233,484.1021,210.48,487.7072,201.3147" style="stroke: #A80036; stroke-width: 1.0;"/><ellipse cx="459" cy="240.0664" fill="none" rx="3" ry="3" style="stroke: #000000; stroke-width: 1.0;"/><text fill="#000000" font-family="sans-serif" font-size="13" lengthAdjust="spacingAndGlyphs" textLength="91" x="466" y="244.0669">.authority.root</text><!--MD5=[327723372fcc9f4d0a7402045980df41]
link Authority to N2--><path d="M731.6808,201.1288 C768.1271,225.3033 807.1069,251.1582 843.1595,275.0716 " fill="none" id="Authority-&gt;N2" style="stroke: #A80036; stroke-width: 1.0;"/><polygon fill="#A80036" points="847.5413,277.978,842.2523,269.6698,843.3746,275.2142,837.8302,276.3364,847.5413,277.978" style="stroke: #A80036; stroke-width: 1.0;"/><text fill="#000000" font-family="sans-serif" font-size="13" lengthAdjust="spacingAndGlyphs" textLength="46" x="796" y="244.0669">n2.root</text><!--MD5=[4ffae381981a331506b36106f3627a07]
link N2 to Authority--><path d="M904.8442,277.7257 C888.1145,261.0162 869.7606,244.5566 851,231 C837.8936,221.5291 823.9668,212.4632 809.6241,203.8473 " fill="none" id="N2-&gt;Authority" style="stroke: #A80036; stroke-width: 1.0;"/><polygon fill="#A80036" points="805.1601,201.1878,810.8446,209.2306,809.4555,203.7469,814.9392,202.3579,805.1601,201.1878" style="stroke: #A80036; stroke-width: 1.0;"/><ellipse cx="877" cy="240.0664" fill="none" rx="3" ry="3" style="stroke: #000000; stroke-width: 1.0;"/><text fill="#000000" font-family="sans-serif" font-size="13" lengthAdjust="spacingAndGlyphs" textLength="91" x="884" y="244.0669">.authority.root</text><!--MD5=[fc38f41c19e9cde3d7843d8ea3b407f8]
@startuml
skinparam componentStyle rectangle

component Authority [
Authority
Has the records:
- PKEY, n1, 1111
- PKEY, n2, 2221
- TXT, mixnet, "n1, n2"

Can query the records (in its root zone):
- n1.root -> TXT, n1, email=root@n1.pep.example;layer=1;openpgp=AAAA
- n2.root -> A, n2, 10.0.0.2
- mixnet.root -> TXT, mixnet, "n1,n2"
]

component N1 [
N1
Has the records:
- PKEY, authority, 0000
- TXT, n1, email=root@n1.pep.example;layer=1;openpgp=AAAA

Can query the records (in its root zone):
- n1.root -> TXT, n1, email=root@n1.pep.example;layer=1;openpgp=AAAA
- mixnet.authority.root -> TXT, mixnet, "n1,n2"
- n2.authority.root -> TXT, n2, email=root@n2.pep.example;layer=1;openpgp=BBBB
]

component N2 [
N2
Has the records:
- PKEY, authority, 0000
- TXT, n2, email=root@n2.pep.example;layer=1;openpgp=BBBB

Can query the records (in its root zone):
- n2.root -> TXT, n2, email=root@n2.pep.example;layer=1;openpgp=BBBB
- mixnet.authority.root -> TXT, mixnet, "n1,n2"
- n1.authority.root -> TXT, n1, email=root@n1.pep.example;layer=1;openpgp=AAAA
]

[Authority] - -> [N1] : n1.root
[Authority] - -> [N2] : n2.root

[N1] - -> [Authority] : *.authority.root
[N2] - -> [Authority] : *.authority.root

@enduml

PlantUML version 1.2020.02(Sun Mar 01 10:22:07 GMT 2020)
(GPL source distribution)
Java Runtime: Java(TM) SE Runtime Environment
JVM: Java HotSpot(TM) 64-Bit Server VM
Java Version: 1.8.0_241-b07
Operating System: Linux
Default Encoding: UTF-8
Language: en
Country: US
--></g></svg>